[
  {
    "id": 4001,
    "army": "Haqqislam",
    "isc": "Daylami Infantry",
    "legacy_isc": "Daylami Infantry",
    "name": "Daylami",
    "type": "LI",
    "classification": "Garrison",
    "imp": "",
    "irr": "X",
    "cube": "",
    "mov": "4-4",
    "cc": "13",
    "bs": "11",
    "ph": "10",
    "wip": "13",
    "arm": "1",
    "bts": "0",
    "w": "1",
    "s": "2",
    "ava": "T",
    "spec": [],
    "childs": [
      {
        "id": 1,
        "name": "Shotgun",
        "legacy_code": "Default",
        "cost": "5",
        "swc": "0",
        "spec": [],
        "bsw": [
          "Light Shotgun"
        ],
        "ccw": [
          "Knife",
          "Pistol"
        ]
      },
      {
        "id": 2,
        "name": "Camo+Panzerfaust",
        "legacy_code": "Camo+Panzerfaust",
        "cost": "8",
        "swc": "0.5",
        "spec": [
          "CH: Limited Camouflage",
          "Inferior Infiltration"
        ],
        "bsw": [
          "Panzerfaust",
          "Light Shotgun"
        ],
        "ccw": [
          "Knife",
          "Pistol"
        ]
      },
      {
        "id": 3,
        "name": "Camo",
        "legacy_code": "Camo",
        "cost": "10",
        "swc": "0",
        "spec": [
          "CH: Limited Camouflage",
          "Inferior Infiltration"
        ],
        "bsw": [
          "Rifle",
          "Light Shotgun"
        ],
        "ccw": [
          "Knife",
          "Pistol"
        ]
      },
      {
        "id": 4,
        "name": "HMG",
        "legacy_code": "HMG",
        "cost": "17",
        "swc": "0.5",
        "spec": [],
        "bsw": [
          "HMG"
        ],
        "ccw": [
          "Knife",
          "Pistol"
        ]
      },
      {
        "id": 5,
        "name": "Grenadier",
        "legacy_code": "Grenadier",
        "cost": "8",
        "swc": "0.5",
        "spec": [],
        "bsw": [
          "Light Shotgun",
          "Light Grenade Launcher"
        ],
        "ccw": [
          "Knife",
          "Pistol"
        ]
      },
      {
        "id": 6,
        "name": "Panzerfaust",
        "legacy_code": "Panzerfaust",
        "cost": "7",
        "swc": "0.5",
        "spec": [],
        "bsw": [
          "Panzerfaust",
          "Light Shotgun"
        ],
        "ccw": [
          "Knife",
          "Pistol"
        ]
      }
    ]
  },
  {
    "id": 4002,
    "army": "Haqqislam",
    "isc": "Ghulam",
    "legacy_isc": "Ghulam",
    "name": "Ghulam",
    "type": "LI",
    "classification": "Line",
    "imp": "",
    "irr": "",
    "cube": "X",
    "mov": "4-4",
    "cc": "13",
    "bs": "11",
    "ph": "10",
    "wip": "14",
    "arm": "1",
    "bts": "0",
    "w": "1",
    "s": "2",
    "ava": "T",
    "spec": [],
    "childs": [
      {
        "id": 1,
        "name": "Rifle",
        "legacy_code": "Default",
        "cost": "12",
        "swc": "0",
        "spec": [],
        "bsw": [
          "Rifle",
          "Light Shotgun"
        ],
        "ccw": [
          "Knife",
          "Pistol"
        ]
      },
      {
        "id": 2,
        "name": "Hacker",
        "legacy_code": "Hacker",
        "cost": "20",
        "swc": "0.5",
        "spec": [
          "Hacking Device"
        ],
        "bsw": [
          "Rifle",
          "Light Shotgun"
        ],
        "ccw": [
          "Knife",
          "Pistol"
        ]
      },
      {
        "id": 3,
        "name": "HMG",
        "legacy_code": "HMG",
        "cost": "20",
        "swc": "1",
        "spec": [],
        "bsw": [
          "HMG"
        ],
        "ccw": [
          "Knife",
          "Pistol"
        ]
      },
      {
        "id": 4,
        "name": "Missile Launcher",
        "legacy_code": "Missile Launcher",
        "cost": "17",
        "swc": "1.5",
        "spec": [],
        "bsw": [
          "Missile Launcher"
        ],
        "ccw": [
          "Knife",
          "Pistol"
        ]
      },
      {
        "id": 5,
        "name": "Grenadier",
        "legacy_code": "Grenadier",
        "cost": "13",
        "swc": "1",
        "spec": [],
        "bsw": [
          "Rifle",
          "Light Grenade Launcher"
        ],
        "ccw": [
          "Knife",
          "Pistol"
        ]
      },
      {
        "id": 6,
        "name": "Sniper Rifle",
        "legacy_code": "Sniper Rifle",
        "cost": "16",
        "swc": "0.5",
        "spec": [],
        "bsw": [
          "Sniper Rifle"
        ],
        "ccw": [
          "Knife",
          "Pistol"
        ]
      },
      {
        "id": 7,
        "name": "Panzerfaust",
        "legacy_code": "Panzerfaust",
        "cost": "15",
        "swc": "0.5",
        "spec": [],
        "bsw": [
          "Panzerfaust",
          "Rifle",
          "Light Shotgun"
        ],
        "ccw": [
          "Knife",
          "Pistol"
        ]
      },
      {
        "id": 8,
        "name": "Doctor",
        "legacy_code": "Doctor",
        "cost": "16",
        "swc": "0",
        "spec": [
          "Doctor Plus",
          "MediKit"
        ],
        "bsw": [
          "Rifle",
          "Light Shotgun"
        ],
        "ccw": [
          "Knife",
          "Pistol"
        ]
      },
      {
        "id": 9,
        "name": "Observer",
        "legacy_code": "Observer",
        "cost": "13",
        "swc": "0",
        "spec": [
          "Forward Observer"
        ],
        "bsw": [
          "Rifle",
          "Light Shotgun"
        ],
        "ccw": [
          "Knife",
          "Pistol"
        ]
      },
      {
        "id": 10,
        "name": "Deployable Repeater",
        "legacy_code": "Deployable Repeater",
        "cost": "14",
        "swc": "0",
        "spec": [
          "Deployable Repeater"
        ],
        "bsw": [
          "Rifle",
          "Light Shotgun",
          "E/Mauler"
        ],
        "ccw": [
          "Knife",
          "Pistol"
        ]
      },
      {
        "id": 11,
        "name": "Lieutenant",
        "legacy_code": "Lieutenant",
        "cost": "12",
        "swc": "0",
        "spec": [
          "Lieutenant"
        ],
        "bsw": [
          "Rifle",
          "Light Shotgun"
        ],
        "ccw": [
          "Knife",
          "Pistol"
        ]
      },
      {
        "id": 12,
        "name": "HMG Lieutenant",
        "legacy_code": "HMG Lieutenant",
        "cost": "20",
        "swc": "0.5",
        "spec": [
          "Lieutenant"
        ],
        "bsw": [
          "HMG"
        ],
        "ccw": [
          "Knife",
          "Pistol"
        ]
      },
      {
        "id": 13,
        "name": "Missile Launcher Lieutenant",
        "legacy_code": "Missile Launcher Lieutenant",
        "cost": "17",
        "swc": "1.5",
        "spec": [
          "Lieutenant"
        ],
        "bsw": [
          "Missile Launcher"
        ],
        "ccw": [
          "Knife",
          "Pistol"
        ]
      }
    ]
  },
  {
    "id": 4003,
    "army": "Haqqislam",
    "isc": "Naffatûn",
    "legacy_isc": "Naffatûn",
    "name": "Naffatun",
    "type": "LI",
    "classification": "Line",
    "imp": "",
    "irr": "",
    "cube": "X",
    "mov": "4-4",
    "cc": "13",
    "bs": "11",
    "ph": "11",
    "wip": "14",
    "arm": "1",
    "bts": "3",
    "w": "1",
    "s": "2",
    "ava": "4",
    "spec": [],
    "childs": [
      {
        "id": 1,
        "name": "LFT",
        "legacy_code": "Default",
        "cost": "12",
        "swc": "0",
        "spec": [],
        "bsw": [
          "Rifle",
          "Light Flamethrower",
          "Grenades"
        ],
        "ccw": [
          "Knife",
          "Pistol"
        ]
      },
      {
        "id": 2,
        "name": "HFT",
        "legacy_code": "HFT",
        "cost": "13",
        "swc": "0",
        "spec": [],
        "bsw": [
          "Rifle",
          "Heavy Flamethrower"
        ],
        "ccw": [
          "Knife",
          "Pistol"
        ]
      },
      {
        "id": 3,
        "name": "Lieutenant",
        "legacy_code": "Lieutenant",
        "cost": "12",
        "swc": "0",
        "spec": [
          "Lieutenant"
        ],
        "bsw": [
          "Rifle",
          "Light Flamethrower",
          "Grenades"
        ],
        "ccw": [
          "Knife",
          "Pistol"
        ]
      }
    ]
  },
  {
    "id": 4004,
    "army": "Haqqislam",
    "isc": "Halqa",
    "legacy_isc": "Halqa",
    "name": "Halqa",
    "type": "LI",
    "classification": "Line",
    "imp": "",
    "irr": "",
    "cube": "",
    "mov": "4-4",
    "cc": "13",
    "bs": "11",
    "ph": "10",
    "wip": "14",
    "arm": "1",
    "bts": "0",
    "w": "1",
    "s": "2",
    "ava": "T",
    "spec": [
      "Mechanized Deployment"
    ],
    "childs": [
      {
        "id": 1,
        "name": "Rifle",
        "legacy_code": "Default",
        "cost": "15",
        "swc": "0",
        "spec": [],
        "bsw": [
          "Rifle",
          "Light Shotgun"
        ],
        "ccw": [
          "Knife",
          "Pistol"
        ]
      },
      {
        "id": 2,
        "name": "Hacker",
        "legacy_code": "Hacker",
        "cost": "23",
        "swc": "0.5",
        "spec": [
          "Hacking Device"
        ],
        "bsw": [
          "Rifle",
          "Light Shotgun"
        ],
        "ccw": [
          "Knife",
          "Pistol"
        ]
      },
      {
        "id": 3,
        "name": "Doctor",
        "legacy_code": "Doctor",
        "cost": "19",
        "swc": "0",
        "spec": [
          "Doctor Plus",
          "MediKit"
        ],
        "bsw": [
          "Rifle",
          "Light Shotgun"
        ],
        "ccw": [
          "Knife",
          "Pistol"
        ]
      },
      {
        "id": 4,
        "name": "Observer",
        "legacy_code": "Observer",
        "cost": "16",
        "swc": "0",
        "spec": [
          "Forward Observer"
        ],
        "bsw": [
          "Rifle",
          "Light Shotgun"
        ],
        "ccw": [
          "Knife",
          "Pistol"
        ]
      },
      {
        "id": 5,
        "name": "HMG",
        "legacy_code": "HMG",
        "cost": "23",
        "swc": "1",
        "spec": [],
        "bsw": [
          "HMG"
        ],
        "ccw": [
          "Knife",
          "Pistol"
        ]
      },
      {
        "id": 6,
        "name": "Missile Launcher",
        "legacy_code": "Missile Launcher",
        "cost": "20",
        "swc": "1.5",
        "spec": [],
        "bsw": [
          "Missile Launcher"
        ],
        "ccw": [
          "Knife",
          "Pistol"
        ]
      },
      {
        "id": 7,
        "name": "Grenadier",
        "legacy_code": "Grenadier",
        "cost": "16",
        "swc": "1",
        "spec": [],
        "bsw": [
          "Rifle",
          "Light Grenade Launcher"
        ],
        "ccw": [
          "Knife",
          "Pistol"
        ]
      },
      {
        "id": 8,
        "name": "Lieutenant",
        "legacy_code": "Lieutenant",
        "cost": "15",
        "swc": "1",
        "spec": [
          "Lieutenant"
        ],
        "bsw": [
          "Rifle",
          "Light Shotgun"
        ],
        "ccw": [
          "Knife",
          "Pistol"
        ]
      }
    ]
  },
  {
    "id": 4005,
    "army": "Haqqislam",
    "isc": "Khawarijs",
    "legacy_isc": "Khawarijs",
    "name": "Khawarij",
    "type": "LI",
    "classification": "Elite",
    "imp": "",
    "irr": "",
    "cube": "X",
    "mov": "4-4",
    "cc": "20",
    "bs": "13",
    "ph": "13",
    "wip": "14",
    "arm": "1",
    "bts": "3",
    "w": "1",
    "s": "2",
    "ava": "3",
    "spec": [
      "Religious Troop",
      "Bioimmunity",
      "Super-Jump",
      "Poison"
    ],
    "childs": [
      {
        "id": 1,
        "name": "Rifle",
        "legacy_code": "Default",
        "cost": "27",
        "swc": "0",
        "spec": [],
        "bsw": [
          "Rifle",
          "Light Shotgun",
          "Grenades"
        ],
        "ccw": [
          "Pistol",
          "AP CCW"
        ]
      },
      {
        "id": 2,
        "name": "Panzerfaust",
        "legacy_code": "Panzerfaust",
        "cost": "27",
        "swc": "0",
        "spec": [],
        "bsw": [
          "Boarding Shotgun",
          "Panzerfaust"
        ],
        "ccw": [
          "Pistol",
          "AP CCW"
        ]
      },
      {
        "id": 3,
        "name": "Spitfire",
        "legacy_code": "Spitfire",
        "cost": "32",
        "swc": "1.5",
        "spec": [
          "Fatality L2"
        ],
        "bsw": [
          "Spitfire"
        ],
        "ccw": [
          "Pistol",
          "AP CCW"
        ]
      },
      {
        "id": 4,
        "name": "Doctor",
        "legacy_code": "Doctor",
        "cost": "30",
        "swc": "0",
        "spec": [
          "Doctor Plus",
          "MediKit"
        ],
        "bsw": [
          "Boarding Shotgun",
          "Grenades"
        ],
        "ccw": [
          "Pistol",
          "AP CCW"
        ]
      },
      {
        "id": 5,
        "name": "Lieutenant",
        "legacy_code": "Lieutenant",
        "cost": "27",
        "swc": "0",
        "spec": [
          "Lieutenant"
        ],
        "bsw": [
          "Rifle",
          "Light Shotgun"
        ],
        "ccw": [
          "Pistol",
          "AP CCW"
        ]
      },
      {
        "id": 6,
        "name": "Spitfire Lieutenant",
        "legacy_code": "Spitfire Lieutenant",
        "cost": "32",
        "swc": "1.5",
        "spec": [
          "Lieutenant",
          "Fatality L2"
        ],
        "bsw": [
          "Spitfire"
        ],
        "ccw": [
          "Pistol",
          "AP CCW"
        ]
      }
    ]
  },
  {
    "id": 4006,
    "army": "Haqqislam",
    "isc": "Djanbazan",
    "legacy_isc": "Djanbazan",
    "name": "Djanbazan",
    "type": "MI",
    "classification": "Elite",
    "imp": "",
    "irr": "",
    "cube": "X",
    "mov": "4-2",
    "cc": "14",
    "bs": "12",
    "ph": "11",
    "wip": "14",
    "arm": "3",
    "bts": "0",
    "w": "1",
    "s": "2",
    "ava": "2",
    "spec": [
      "Multispectral Visor L2",
      "Multiterrain",
      "Regeneration"
    ],
    "childs": [
      {
        "id": 1,
        "name": "Rifle",
        "legacy_code": "Default",
        "cost": "27",
        "swc": "0",
        "spec": [],
        "bsw": [
          "Rifle",
          "Light Shotgun"
        ],
        "ccw": [
          "Knife",
          "Pistol"
        ]
      },
      {
        "id": 2,
        "name": "Hacker",
        "legacy_code": "Hacker",
        "cost": "35",
        "swc": "0.5",
        "spec": [
          "Hacking Device"
        ],
        "bsw": [
          "Rifle",
          "Light Shotgun"
        ],
        "ccw": [
          "Knife",
          "Pistol"
        ]
      },
      {
        "id": 3,
        "name": "HMG",
        "legacy_code": "HMG",
        "cost": "35",
        "swc": "1.5",
        "spec": [],
        "bsw": [
          "HMG"
        ],
        "ccw": [
          "Knife",
          "Pistol"
        ]
      },
      {
        "id": 4,
        "name": "Sniper Rifle",
        "legacy_code": "Sniper Rifle",
        "cost": "31",
        "swc": "0.5",
        "spec": [],
        "bsw": [
          "Sniper Rifle"
        ],
        "ccw": [
          "Knife",
          "Pistol"
        ]
      },
      {
        "id": 5,
        "name": "Lieutenant",
        "legacy_code": "Lieutenant",
        "cost": "27",
        "swc": "1",
        "spec": [
          "Lieutenant"
        ],
        "bsw": [
          "Rifle",
          "Light Shotgun"
        ],
        "ccw": [
          "Knife",
          "Pistol"
        ]
      },
      {
        "id": 6,
        "name": "Doctor",
        "legacy_code": "Doctor",
        "cost": "31",
        "swc": "0",
        "spec": [
          "Doctor Plus",
          "MediKit"
        ],
        "bsw": [
          "Rifle",
          "Light Shotgun"
        ],
        "ccw": [
          "Knife",
          "Pistol"
        ]
      },
      {
        "id": 7,
        "name": "Marksman",
        "cost": "29",
        "swc": "0",
        "spec": [],
        "bsw": [
          "Shock Marksman Rifle"
        ],
        "ccw": [
          "Knife",
          "Pistol"
        ]
      }
    ]
  },
  {
    "id": 4007,
    "army": "Haqqislam",
    "isc": "Hassassin Ragiks",
    "legacy_isc": "Hassassin Ragiks",
    "name": "Ragik",
    "type": "MI",
    "classification": "Elite",
    "imp": "",
    "irr": "",
    "cube": "X",
    "mov": "4-2",
    "cc": "14",
    "bs": "12",
    "ph": "12",
    "wip": "15",
    "arm": "2",
    "bts": "0",
    "w": "1",
    "s": "2",
    "ava": "3",
    "spec": [
      "AD: Combat Jump",
      "Religious Troop",
      "V: Dogged"
    ],
    "childs": [
      {
        "id": 1,
        "name": "Rifle",
        "legacy_code": "Default",
        "cost": "26",
        "swc": "0",
        "spec": [],
        "bsw": [
          "Rifle",
          "Light Shotgun"
        ],
        "ccw": [
          "CCW",
          "Pistol"
        ]
      },
      {
        "id": 2,
        "name": "Hacker",
        "legacy_code": "Hacker",
        "cost": "32",
        "swc": "0.5",
        "spec": [
          "Assault Hacking Device"
        ],
        "bsw": [
          "Rifle",
          "Light Shotgun"
        ],
        "ccw": [
          "CCW",
          "Pistol"
        ]
      },
      {
        "id": 3,
        "name": "Spitfire",
        "legacy_code": "Spitfire",
        "cost": "32",
        "swc": "1.5",
        "spec": [],
        "bsw": [
          "Spitfire"
        ],
        "ccw": [
          "CCW",
          "Pistol"
        ]
      },
      {
        "id": 4,
        "name": "Boarding Shotgun",
        "legacy_code": "Boarding Shotgun",
        "cost": "25",
        "swc": "0",
        "spec": [],
        "bsw": [
          "Boarding Shotgun"
        ],
        "ccw": [
          "CCW",
          "Pistol"
        ]
      }
    ]
  },
  {
    "id": 4008,
    "army": "Haqqislam",
    "isc": "Janissaries",
    "legacy_isc": "Janissaries",
    "name": "Janissary",
    "type": "HI",
    "classification": "Veteran",
    "imp": "",
    "irr": "",
    "cube": "",
    "hackable": "X",
    "mov": "4-4",
    "cc": "15",
    "bs": "13",
    "ph": "14",
    "wip": "14",
    "arm": "4",
    "bts": "3",
    "w": "2",
    "s": "2",
    "ava": "2",
    "spec": [
      "Religious Troop"
    ],
    "childs": [
      {
        "id": 1,
        "name": "AP Rifle",
        "legacy_code": "Default",
        "cost": "36",
        "swc": "0",
        "spec": [],
        "bsw": [
          "AP Rifle",
          "Light Shotgun"
        ],
        "ccw": [
          "CCW",
          "Pistol"
        ]
      },
      {
        "id": 2,
        "name": "TinBot",
        "legacy_code": "TinBot",
        "cost": "37",
        "swc": "0.5",
        "spec": [
          "TinBot A (Deflector L1)"
        ],
        "bsw": [
          "AP Rifle",
          "Light Shotgun"
        ],
        "ccw": [
          "CCW",
          "Pistol"
        ]
      },
      {
        "id": 3,
        "name": "HMG",
        "legacy_code": "HMG",
        "cost": "40",
        "swc": "2",
        "spec": [],
        "bsw": [
          "HMG"
        ],
        "ccw": [
          "CCW",
          "Pistol"
        ]
      },
      {
        "id": 4,
        "name": "Boarding Shotgun",
        "legacy_code": "Boarding Shotgun",
        "cost": "31",
        "swc": "0",
        "spec": [],
        "bsw": [
          "Boarding Shotgun"
        ],
        "ccw": [
          "CCW",
          "Pistol"
        ]
      },
      {
        "id": 5,
        "name": "Lieutenant",
        "legacy_code": "Lieutenant",
        "cost": "36",
        "swc": "0.5",
        "spec": [
          "Lieutenant"
        ],
        "bsw": [
          "AP Rifle",
          "Light Shotgun"
        ],
        "ccw": [
          "CCW",
          "Pistol"
        ]
      },
      {
        "id": 6,
        "name": "Doctor",
        "legacy_code": "Doctor",
        "cost": "41",
        "swc": "0",
        "spec": [
          "Akbar Doctor",
          "MediKit"
        ],
        "bsw": [
          "AP Rifle",
          "Light Shotgun"
        ],
        "ccw": [
          "CCW",
          "Pistol"
        ]
      },
      {
        "id": 7,
        "name": "Missile Launcher",
        "legacy_code": "Missile Launcher",
        "cost": "37",
        "swc": "2",
        "spec": [],
        "bsw": [
          "Missile Launcher"
        ],
        "ccw": [
          "CCW",
          "Pistol"
        ]
      },
      {
        "id": 8,
        "name": "BSG TinBot",
        "legacy_code": "BSG TinBot",
        "cost": "32",
        "swc": "0.5",
        "spec": [
          "TinBot A (Deflector L1)"
        ],
        "bsw": [
          "Boarding Shotgun"
        ],
        "ccw": [
          "CCW",
          "Pistol"
        ]
      }
    ]
  },
  {
    "id": 4009,
    "army": "Haqqislam",
    "isc": "Al Fasid",
    "legacy_isc": "Al Fasid",
    "name": "Fasid",
    "type": "HI",
    "classification": "Veteran",
    "imp": "",
    "irr": "",
    "cube": "X",
    "hackable": "X",
    "mov": "4-2",
    "cc": "15",
    "bs": "13",
    "ph": "14",
    "wip": "14",
    "arm": "5",
    "bts": "6",
    "w": "2",
    "s": "5",
    "ava": "2",
    "spec": [
      "Minelayer",
      "Sixth Sense L1",
      "Veteran L1"
    ],
    "childs": [
      {
        "id": 1,
        "name": "Heavy Rocket Launcher",
        "legacy_code": "Default",
        "cost": "45",
        "swc": "2",
        "spec": [],
        "bsw": [
          "Heavy Rocket Launcher",
          "Submachine Gun",
          "Antipersonnel Mines"
        ],
        "ccw": [
          "Knife",
          "Heavy Pistol"
        ]
      },
      {
        "id": 2,
        "name": "HMG",
        "legacy_code": "HMG",
        "cost": "53",
        "swc": "2",
        "spec": [],
        "bsw": [
          "HMG",
          "Smoke Light Grenade Launcher",
          "Light Grenade Launcher",
          "Antipersonnel Mines"
        ],
        "ccw": [
          "Knife",
          "Heavy Pistol"
        ]
      }
    ]
  },
  {
    "id": 4010,
    "army": "Haqqislam",
    "isc": "Maghariba Guard",
    "legacy_isc": "Maghariba Guard",
    "name": "Maghariba",
    "ava": "1",
    "spec": [],
    "profiles": [
      {
        "id": 1,
        "name": "Maghariba Guard",
        "type": "TAG",
        "classification": "Mechanized",
        "imp": "",
        "irr": "",
        "cube": "X",
        "hackable": "X",
        "mov": "6-4",
        "cc": "16",
        "bs": "14",
        "ph": "17",
        "wip": "14",
        "arm": "8",
        "bts": "6",
        "w": "3",
        "s": "8",
        "spec": [
          "Heavyweight",
          "Advanced ECM",
          "Manned"
        ],
        "bsw": [],
        "ccw": []
      },
      {
        "id": 2,
        "name": "Pilot",
        "type": "LI",
        "imp": "",
        "irr": "",
        "cube": "X",
        "hackable": "",
        "mov": "4-4",
        "cc": "13",
        "bs": "11",
        "ph": "10",
        "wip": "14",
        "arm": "0",
        "bts": "0",
        "w": "1",
        "s": "2",
        "ava": " ",
        "spec": [
          "Pilot",
          "Paramedic",
          "MediKit"
        ],
        "bsw": [
          "Light Shotgun"
        ],
        "ccw": [
          "Knife",
          "Pistol"
        ]
      }
    ],
    "childs": [
      {
        "id": 1,
        "name": "HFT",
        "legacy_code": "Default",
        "cost": "78",
        "swc": "2",
        "spec": [],
        "bsw": [
          "MULTI HMG",
          "Heavy Flamethrower"
        ],
        "ccw": []
      },
      {
        "id": 2,
        "name": "Heavy Pistols",
        "legacy_code": "Heavy Pistols",
        "cost": "79",
        "swc": "2",
        "spec": [],
        "bsw": [
          "MULTI HMG"
        ],
        "ccw": [
          "Heavy Pistol (2)"
        ]
      },
      {
        "id": 3,
        "name": "360° Visor",
        "legacy_code": "360° Visor",
        "cost": "98",
        "swc": "2",
        "spec": [
          "360° Visor"
        ],
        "bsw": [
          "MULTI HMG",
          "Heavy Flamethrower"
        ],
        "ccw": []
      }
    ]
  },
  {
    "id": 4011,
    "army": "Haqqislam",
    "isc": "Hunzakuts",
    "legacy_isc": "Hunzakuts",
    "name": "Hunzakut",
    "type": "SK",
    "classification": "Specially Trained",
    "imp": "",
    "irr": "X",
    "cube": "",
    "mov": "4-4",
    "cc": "13",
    "bs": "11",
    "ph": "12",
    "wip": "14",
    "arm": "0",
    "bts": "0",
    "w": "1",
    "s": "2",
    "ava": "2",
    "spec": [
      "CH: Camouflage",
      "Multiterrain",
      "Infiltration"
    ],
    "childs": [
      {
        "id": 1,
        "name": "Grenadier",
        "legacy_code": "Default",
        "cost": "18",
        "swc": "0.5",
        "spec": [
          "Deployable Repeater"
        ],
        "bsw": [
          "Antipersonnel Mines",
          "Rifle",
          "Light Grenade Launcher"
        ],
        "ccw": [
          "Knife",
          "Pistol"
        ]
      },
      {
        "id": 2,
        "name": "Sniper Rifle",
        "legacy_code": "Sniper Rifle",
        "cost": "21",
        "swc": "0.5",
        "spec": [],
        "bsw": [
          "Antipersonnel Mines",
          "Sniper Rifle"
        ],
        "ccw": [
          "Knife",
          "Pistol"
        ]
      },
      {
        "id": 3,
        "name": "Observer+Repeater",
        "legacy_code": "Observer+Repeater",
        "cost": "18",
        "swc": "0",
        "spec": [
          "Forward Observer",
          "Deployable Repeater"
        ],
        "bsw": [
          "Antipersonnel Mines",
          "Rifle",
          "Light Shotgun"
        ],
        "ccw": [
          "Knife",
          "Pistol"
        ]
      }
    ]
  },
  {
    "id": 4012,
    "army": "Haqqislam",
    "isc": "Murabids Tuareg",
    "legacy_isc": "Murabids Tuareg",
    "name": "Tuareg",
    "type": "SK",
    "classification": "Specially Trained",
    "imp": "",
    "irr": "",
    "cube": "X",
    "mov": "4-4",
    "cc": "13",
    "bs": "11",
    "ph": "12",
    "wip": "15",
    "arm": "1",
    "bts": "0",
    "w": "1",
    "s": "2",
    "ava": "2",
    "spec": [
      "CH: TO Camouflage",
      "Infiltration",
      "Multiterrain"
    ],
    "childs": [
      {
        "id": 1,
        "name": "Rifle",
        "legacy_code": "Default",
        "cost": "29",
        "swc": "0",
        "spec": [],
        "bsw": [
          "Antipersonnel Mines",
          "Rifle",
          "Light Shotgun"
        ],
        "ccw": [
          "Knife",
          "Pistol"
        ]
      },
      {
        "id": 2,
        "name": "Hacker",
        "legacy_code": "Hacker",
        "cost": "35",
        "swc": "0.5",
        "spec": [
          "Assault Hacking Device"
        ],
        "bsw": [
          "Antipersonnel Mines",
          "Rifle",
          "Light Shotgun"
        ],
        "ccw": [
          "Knife",
          "Pistol"
        ]
      },
      {
        "id": 3,
        "name": "Sniper Rifle",
        "legacy_code": "Sniper Rifle",
        "cost": "33",
        "swc": "0.5",
        "spec": [],
        "bsw": [
          "Antipersonnel Mines",
          "Sniper Rifle"
        ],
        "ccw": [
          "Knife",
          "Pistol"
        ]
      },
      {
        "id": 4,
        "name": "Boarding Shotgun",
        "legacy_code": "Boarding Shotgun",
        "cost": "28",
        "swc": "0",
        "spec": [],
        "bsw": [
          "Antipersonnel Mines",
          "Boarding Shotgun"
        ],
        "ccw": [
          "Knife",
          "Pistol"
        ]
      },
      {
        "id": 5,
        "name": "Doctor",
        "legacy_code": "Doctor",
        "cost": "33",
        "swc": "0",
        "spec": [
          "Doctor Plus",
          "MediKit"
        ],
        "bsw": [
          "Antipersonnel Mines",
          "Rifle",
          "Light Shotgun"
        ],
        "ccw": [
          "Knife",
          "Pistol"
        ]
      }
    ]
  },
  {
    "id": 4013,
    "army": "Haqqislam",
    "isc": "Hassassin Fiday",
    "legacy_isc": "Hassassin Fiday",
    "name": "Fiday",
    "type": "SK",
    "classification": "Specially Trained",
    "imp": "",
    "irr": "",
    "cube": "",
    "mov": "4-4",
    "cc": "21",
    "bs": "11",
    "ph": "12",
    "wip": "15",
    "arm": "1",
    "bts": "0",
    "w": "1",
    "s": "2",
    "ava": "1",
    "spec": [
      "Basic Impersonation",
      "Martial Arts L3",
      "Religious Troop",
      "Multiterrain",
      "Kinematika L1"
    ],
    "childs": [
      {
        "id": 1,
        "name": "DA CCW",
        "legacy_code": "Default",
        "cost": "31",
        "swc": "0",
        "spec": [],
        "bsw": [
          "Rifle",
          "Light Shotgun",
          "Smoke Grenades"
        ],
        "ccw": [
          "Pistol",
          "DA CCW",
          "Knife"
        ]
      },
      {
        "id": 2,
        "name": "Mines",
        "legacy_code": "Mines",
        "cost": "31",
        "swc": "0",
        "spec": [],
        "bsw": [
          "Antipersonnel Mines",
          "Rifle",
          "Light Shotgun",
          "Smoke Grenades"
        ],
        "ccw": [
          "Pistol",
          "AP CCW",
          "Knife"
        ]
      },
      {
        "id": 3,
        "name": "Boarding Shotgun",
        "legacy_code": "Boarding Shotgun",
        "cost": "29",
        "swc": "0",
        "spec": [],
        "bsw": [
          "Boarding Shotgun",
          "Smoke Grenades"
        ],
        "ccw": [
          "Pistol",
          "AP CCW",
          "Knife"
        ]
      },
      {
        "id": 4,
        "name": "AP CCW",
        "legacy_code": "AP CCW",
        "cost": "30",
        "swc": "0",
        "spec": [],
        "bsw": [
          "Rifle",
          "Light Shotgun",
          "Smoke Grenades"
        ],
        "ccw": [
          "Pistol",
          "AP CCW",
          "Knife"
        ]
      }
    ]
  },
  {
    "id": 4014,
    "army": "Haqqislam",
    "isc": "Kum",
    "legacy_isc": "Kum",
    "name": "Kum",
    "ava": "T",
    "spec": [
      "V: Dogged"
    ],
    "profiles": [
      {
        "id": 1,
        "type": "WB",
        "classification": "Line",
        "imp": "X",
        "irr": "X",
        "cube": "",
        "mov": "8-6",
        "cc": "20",
        "bs": "11",
        "ph": "13",
        "wip": "14",
        "arm": "1",
        "bts": "0",
        "w": "1",
        "s": "4",
        "spec": [
          "Motorcycle",
          "Kinematika L2"
        ],
        "bsw": [
          "Smoke Light Grenade Launcher"
        ],
        "ccw": []
      },
      {
        "id": 2,
        "name": "Dismounted",
        "mov": "4-4",
        "s": "2",
        "ava": "",
        "spec": []
      }
    ],
    "childs": [
      {
        "id": 1,
        "name": "Rifle",
        "legacy_code": "Default",
        "cost": "19",
        "swc": "0",
        "spec": [],
        "bsw": [
          "Smoke Grenades",
          "Rifle",
          "Light Shotgun"
        ],
        "ccw": [
          "Pistol",
          "Shock CCW"
        ]
      },
      {
        "id": 2,
        "name": "Chain Rifle",
        "legacy_code": "Chain Rifle",
        "cost": "10",
        "swc": "0",
        "spec": [],
        "bsw": [
          "Smoke Grenades",
          "Chain Rifle"
        ],
        "ccw": [
          "Pistol",
          "AP CCW"
        ]
      },
      {
        "id": 3,
        "name": "E/M CCW",
        "legacy_code": "E/M CCW",
        "cost": "14",
        "swc": "0",
        "spec": [],
        "bsw": [
          "Smoke Grenades",
          "Light Shotgun"
        ],
        "ccw": [
          "Pistol",
          "E/M CCW"
        ]
      }
    ]
  },
  {
    "id": 4015,
    "army": "Haqqislam",
    "isc": "Ghazi Muttawi'ah",
    "legacy_isc": "Muttawi'ah",
    "name": "Muttawi'ah",
    "type": "LI",
    "classification": "Line",
    "imp": "X",
    "irr": "X",
    "cube": "",
    "mov": "4-4",
    "cc": "13",
    "bs": "11",
    "ph": "12",
    "wip": "15",
    "arm": "0",
    "bts": "0",
    "w": "1",
    "s": "2",
    "ava": "4",
    "spec": [
      "Religious Troop",
      "V: Dogged"
    ],
    "childs": [
      {
        "id": 1,
        "name": "Chain Rifle",
        "legacy_code": "Default",
        "cost": "5",
        "swc": "0",
        "spec": [],
        "bsw": [
          "E/Marat",
          "Jammer",
          "Chain Rifle",
          "Smoke Grenades"
        ],
        "ccw": [
          "Knife",
          "Pistol"
        ]
      },
      {
        "id": 2,
        "name": "Boarding Shotgun",
        "legacy_code": "Boarding Shotgun",
        "cost": "10",
        "swc": "0",
        "spec": [],
        "bsw": [
          "E/Marat",
          "Jammer",
          "Boarding Shotgun",
          "Smoke Grenades"
        ],
        "ccw": [
          "Knife",
          "Pistol"
        ]
      }
    ]
  },
  {
    "id": 4016,
    "army": "Haqqislam",
    "isc": "Najjarun Engineer",
    "legacy_isc": "Najjarun Engineer",
    "name": "Najjarun",
    "type": "LI",
    "classification": "Support",
    "imp": "",
    "irr": "",
    "cube": "X",
    "mov": "4-4",
    "cc": "13",
    "bs": "11",
    "ph": "10",
    "wip": "14",
    "arm": "1",
    "bts": "0",
    "w": "1",
    "s": "2",
    "ava": "1",
    "spec": [
      "Engineer",
      "V: Courage"
    ],
    "childs": [
      {
        "id": 1,
        "name": "Engineer",
        "legacy_code": "Default",
        "cost": "17",
        "swc": "0",
        "spec": [],
        "bsw": [
          "Rifle",
          "Light Shotgun"
        ],
        "ccw": [
          "D-Charges",
          "Knife",
          "Pistol"
        ]
      }
    ]
  },
  {
    "id": 4017,
    "army": "Haqqislam",
    "isc": "Rafiq Remote",
    "legacy_isc": "Rafiq Remote",
    "name": "Rafiq",
    "type": "REM",
    "classification": "Support",
    "imp": "",
    "irr": "",
    "cube": "",
    "hackable": "X",
    "mov": "6-4",
    "cc": "8",
    "bs": "11",
    "ph": "10",
    "wip": "13",
    "arm": "0",
    "bts": "3",
    "w": "1",
    "s": "3",
    "ava": "1",
    "spec": [
      "Forward Observer",
      "G: Remote Presence",
      "Repeater",
      "Sensor",
      "Deactivator",
      "Sat-Lock",
      "Sniffer"
    ],
    "childs": [
      {
        "id": 1,
        "name": "Rifle",
        "legacy_code": "Default",
        "cost": "16",
        "swc": "0",
        "spec": [],
        "bsw": [
          "Light Shotgun",
          "Rifle"
        ],
        "ccw": [
          "Electric Pulse"
        ]
      }
    ]
  },
  {
    "id": 4018,
    "army": "Haqqislam",
    "isc": "Shihab Remote",
    "legacy_isc": "Shihab Remote",
    "name": "Shihab",
    "type": "REM",
    "classification": "Support",
    "imp": "",
    "irr": "",
    "cube": "",
    "hackable": "X",
    "mov": "6-4",
    "cc": "8",
    "bs": "11",
    "ph": "10",
    "wip": "13",
    "arm": "0",
    "bts": "3",
    "w": "1",
    "s": "3",
    "ava": "1",
    "spec": [
      "360° Visor",
      "G: Remote Presence",
      "Total Reaction"
    ],
    "childs": [
      {
        "id": 1,
        "name": "HMG",
        "legacy_code": "Default",
        "cost": "25",
        "swc": "1",
        "spec": [],
        "bsw": [
          "HMG"
        ],
        "ccw": [
          "Electric Pulse"
        ]
      }
    ]
  },
  {
    "id": 4019,
    "army": "Haqqislam",
    "isc": "Shaytaniyah Remote",
    "legacy_isc": "Shaytaniyah Remote",
    "name": "Shaytaniyah",
    "type": "REM",
    "classification": "Support",
    "imp": "",
    "irr": "",
    "cube": "",
    "hackable": "X",
    "mov": "6-4",
    "cc": "8",
    "bs": "12",
    "ph": "10",
    "wip": "13",
    "arm": "0",
    "bts": "3",
    "w": "1",
    "s": "3",
    "ava": "1",
    "spec": [
      "G: Remote Presence"
    ],
    "childs": [
      {
        "id": 1,
        "name": "Smart Missile Launcher",
        "legacy_code": "Default",
        "cost": "18",
        "swc": "1.5",
        "spec": [],
        "bsw": [
          "Smart Missile Launcher"
        ],
        "ccw": [
          "Electric Pulse"
        ]
      }
    ]
  },
  {
    "id": 4020,
    "army": "Haqqislam",
    "isc": "Fanous Remote",
    "legacy_isc": "Fanous Remote",
    "name": "Fanous",
    "type": "REM",
    "classification": "Support",
    "imp": "",
    "irr": "",
    "cube": "",
    "hackable": "X",
    "mov": "6-6",
    "cc": "8",
    "bs": "8",
    "ph": "11",
    "wip": "13",
    "arm": "0",
    "bts": "3",
    "w": "1",
    "s": "3",
    "ava": "1",
    "spec": [
      "G: Remote Presence",
      "CH: Mimetism",
      "Repeater",
      "Sniffer"
    ],
    "childs": [
      {
        "id": 1,
        "name": "Repeater",
        "legacy_code": "Default",
        "cost": "8",
        "swc": "0",
        "spec": [],
        "bsw": [
          "Flash Pulse"
        ],
        "ccw": [
          "Electric Pulse"
        ]
      }
    ]
  },
  {
    "id": 4021,
    "army": "Haqqislam",
    "isc": "Tarik Mansuri",
    "legacy_isc": "Tarik Mansuri",
    "name": "Tarik Mansuri",
    "image": 4005,
    "type": "LI",
    "classification": "Character",
    "imp": "",
    "irr": "",
    "cube": "X",
    "mov": "6-4",
    "cc": "23",
    "bs": "13",
    "ph": "14",
    "wip": "15",
    "arm": "3",
    "bts": "3",
    "w": "2",
    "s": "5",
    "ava": "1",
    "spec": [
      "Martial Arts L1",
      "Poison",
      "Religious Troop",
      "Super-Jump",
      "Bioimmunity",
      "Kinematika L1",
      "Fatality L2"
    ],
    "childs": [
      {
        "id": 1,
        "name": "AP Rifle",
        "legacy_code": "Default",
        "cost": "53",
        "swc": "0",
        "spec": [],
        "bsw": [
          "Nanopulser",
          "Grenades",
          "AP Rifle",
          "Light Shotgun"
        ],
        "ccw": [
          "DA CCW",
          "Pistol"
        ]
      },
      {
        "id": 2,
        "name": "Spitfire",
        "legacy_code": "Spitfire",
        "cost": "55",
        "swc": "1.5",
        "spec": [],
        "bsw": [
          "Nanopulser",
          "Grenades",
          "Spitfire"
        ],
        "ccw": [
          "DA CCW",
          "Pistol"
        ]
      },
      {
        "id": 3,
        "name": "Lieutenant",
        "legacy_code": "Lieutenant",
        "cost": "53",
        "swc": "-1",
        "spec": [
          "Lieutenant"
        ],
        "bsw": [
          "Nanopulser",
          "Grenades",
          "AP Rifle",
          "Light Shotgun"
        ],
        "ccw": [
          "DA CCW",
          "Pistol"
        ]
      },
      {
        "id": 4,
        "name": "Spitfire Lieutenant",
        "legacy_code": "Spitfire Lieutenant",
        "cost": "55",
        "swc": "1.5",
        "spec": [
          "Lieutenant"
        ],
        "bsw": [
          "Nanopulser",
          "Grenades",
          "Spitfire"
        ],
        "ccw": [
          "DA CCW",
          "Pistol"
        ]
      }
    ]
  },
  {
    "id": 4022,
    "army": "Haqqislam",
    "isc": "Kasym Beg",
    "legacy_isc": "Kasym Beg",
    "name": "Kasym Beg",
    "sharedAva": "Kasym Beg",
    "image": 4014,
    "ava": "1",
    "spec": [
      "V: Dogged"
    ],
    "profiles": [
      {
        "id": 1,
        "name": "Kasym Beg",
        "type": "WB",
        "classification": "Character",
        "imp": "I",
        "irr": "X",
        "cube": "X",
        "mov": "8-6",
        "cc": "23",
        "bs": "12",
        "ph": "14",
        "wip": "14",
        "arm": "2",
        "bts": "0",
        "w": "1",
        "s": "4",
        "ava": "1",
        "spec": [
          "Motorcycle",
          "Kinematika L2"
        ],
        "bsw": [
          "Smoke Light Grenade Launcher"
        ],
        "ccw": []
      },
      {
        "id": 2,
        "name": "Dismounted",
        "mov": "4-4",
        "s": "2",
        "ava": "",
        "spec": [],
        "bsw": [],
        "ccw": []
      }
    ],
    "childs": [
      {
        "id": 1,
        "name": "Chain Rifle",
        "legacy_code": "Default",
        "cost": "16",
        "swc": "0",
        "spec": [],
        "bsw": [
          "Chain Rifle",
          "Panzerfaust",
          "Smoke Grenades"
        ],
        "ccw": [
          "EXP CCW",
          "Pistol"
        ]
      }
    ]
  },
  {
    "id": 4023,
    "army": "Haqqislam",
    "isc": "Kasym Beg (Lieutenant)",
    "legacy_isc": "Kasym Beg (Lieutenant)",
    "name": "Kasym Beg Lt.",
    "sharedAva": "Kasym Beg",
    "image": 4014,
    "ava": "1",
    "spec": [
      "V: Dogged"
    ],
    "profiles": [
      {
        "id": 1,
        "name": "Kasym Beg",
        "type": "WB",
        "classification": "Character",
        "imp": "I",
        "irr": "",
        "cube": "X",
        "mov": "8-6",
        "cc": "23",
        "bs": "12",
        "ph": "14",
        "wip": "14",
        "arm": "2",
        "bts": "0",
        "w": "1",
        "s": "4",
        "ava": "1",
        "spec": [
          "Motorcycle",
          "Kinematika L2"
        ],
        "bsw": [
          "Smoke Light Grenade Launcher"
        ],
        "ccw": []
      },
      {
        "id": 2,
        "name": "Dismounted",
        "mov": "4-4",
        "s": "2",
        "ava": "",
        "spec": [],
        "bsw": [],
        "ccw": []
      }
    ],
    "childs": [
      {
        "id": 1,
        "name": "Lieutenant",
        "legacy_code": "Lieutenant",
        "cost": "26",
        "swc": "-1",
        "spec": [
          "Lieutenant"
        ],
        "bsw": [
          "Chain Rifle",
          "Panzerfaust",
          "Smoke Grenades"
        ],
        "ccw": [
          "EXP CCW",
          "Pistol"
        ]
      }
    ]
  },
  {
    "id": 4024,
    "army": "Haqqislam",
    "isc": "Al Hawwa' Unit",
    "legacy_isc": "Al Hawwa' Unit",
    "name": "Hawwa'",
    "type": "SK",
    "classification": "Specially Trained",
    "imp": "",
    "irr": "",
    "cube": "X",
    "mov": "4-4",
    "cc": "13",
    "bs": "11",
    "ph": "11",
    "wip": "14",
    "arm": "1",
    "bts": "0",
    "w": "1",
    "s": "2",
    "ava": "1",
    "spec": [
      "CH: Camouflage",
      "Infiltration",
      "Multiterrain"
    ],
    "childs": [
      {
        "id": 1,
        "name": "Sniper Rifle",
        "legacy_code": "Default",
        "cost": "27",
        "swc": "0.5",
        "spec": [],
        "bsw": [
          "Sniper Rifle",
          "Antipersonnel Mines"
        ],
        "ccw": [
          "Knife",
          "Pistol"
        ]
      },
      {
        "id": 2,
        "name": "Observer",
        "legacy_code": "Observer",
        "cost": "21",
        "swc": "0",
        "spec": [
          "Forward Observer"
        ],
        "bsw": [
          "Boarding Shotgun"
        ],
        "ccw": [
          "Knife",
          "Pistol",
          "D-Charges"
        ]
      },
      {
        "id": 3,
        "name": "Hacker",
        "legacy_code": "Hacker",
        "cost": "26",
        "swc": "0.5",
        "spec": [
          "Assault Hacking Device"
        ],
        "bsw": [
          "Boarding Shotgun"
        ],
        "ccw": [
          "Knife",
          "Pistol",
          "D-Charges"
        ]
      }
    ]
  },
  {
    "id": 4025,
    "army": "Haqqislam",
    "isc": "Asawira Regiment",
    "legacy_isc": "Asawira Regiment",
    "name": "Asawira",
    "type": "HI",
    "classification": "Headquarters",
    "imp": "F",
    "irr": "",
    "cube": "X",
    "hackable": "X",
    "mov": "4-4",
    "cc": "21",
    "bs": "14",
    "ph": "14",
    "wip": "14",
    "arm": "3",
    "bts": "9",
    "w": "2",
    "s": "2",
    "ava": "1",
    "spec": [
      "Martial Arts L2",
      "Regeneration",
      "Fireteam: Duo",
      "Religious Troop",
      "Assault",
      "Kinematika L2"
    ],
    "childs": [
      {
        "id": 1,
        "name": "AP Rifle",
        "legacy_code": "Default",
        "cost": "41",
        "swc": "0",
        "spec": [],
        "bsw": [
          "Nanopulser",
          "AP Rifle",
          "Light Shotgun"
        ],
        "ccw": [
          "Pistol",
          "Shock CCW"
        ]
      },
      {
        "id": 2,
        "name": "Lieutenant",
        "legacy_code": "Lieutenant",
        "cost": "41",
        "swc": "0",
        "spec": [
          "Lieutenant"
        ],
        "bsw": [
          "Nanopulser",
          "AP Rifle",
          "Light Shotgun"
        ],
        "ccw": [
          "Pistol",
          "Shock CCW"
        ]
      },
      {
        "id": 3,
        "name": "Doctor",
        "legacy_code": "Doctor",
        "cost": "45",
        "swc": "0",
        "spec": [
          "Doctor Plus",
          "MediKit"
        ],
        "bsw": [
          "Nanopulser",
          "AP Rifle",
          "Light Shotgun"
        ],
        "ccw": [
          "Pistol",
          "Shock CCW"
        ]
      },
      {
        "id": 4,
        "name": "Spitfire",
        "legacy_code": "Spitfire",
        "cost": "43",
        "swc": "2",
        "spec": [],
        "bsw": [
          "Nanopulser",
          "Spitfire"
        ],
        "ccw": [
          "Pistol",
          "Shock CCW"
        ]
      },
      {
        "id": 5,
        "name": "DA CCW",
        "legacy_code": "DA CCW",
        "cost": "42",
        "swc": "0",
        "spec": [],
        "bsw": [
          "Nanopulser",
          "AP Rifle",
          "Light Shotgun"
        ],
        "ccw": [
          "Pistol",
          "DA CCW"
        ]
      },
      {
        "id": 6,
        "name": "Boarding Shotgun",
        "legacy_code": "Boarding Shotgun",
        "cost": "35",
        "swc": "0",
        "spec": [],
        "bsw": [
          "Nanopulser",
          "Boarding Shotgun"
        ],
        "ccw": [
          "Pistol",
          "Shock CCW"
        ]
      },
      {
        "id": 7,
        "name": "Shotgun Doctor",
        "cost": "39",
        "swc": "0",
        "spec": [
          "Doctor Plus",
          "MediKit"
        ],
        "bsw": [
          "Nanopulser",
          "Boarding Shotgun"
        ],
        "ccw": [
          "Pistol",
          "Shock CCW"
        ]
      },
      {
        "id": 8,
        "name": "Haris",
        "cost": "44",
        "swc": "2",
        "spec": [
          "Fireteam: Haris"
        ],
        "bsw": [
          "Nanopulser",
          "Spitfire"
        ],
        "ccw": [
          "Pistol",
          "Shock CCW"
        ]
      }
    ]
  },
  {
    "id": 4026,
    "army": "Haqqislam",
    "isc": "Azra'il",
    "legacy_isc": "Azra'il",
    "name": "Azra'il",
    "type": "HI",
    "classification": "Veteran",
    "imp": "",
    "irr": "",
    "cube": "X",
    "hackable": "X",
    "mov": "4-2",
    "cc": "12",
    "bs": "13",
    "ph": "13",
    "wip": "14",
    "arm": "5",
    "bts": "3",
    "w": "2",
    "s": "5",
    "ava": "2",
    "spec": [],
    "childs": [
      {
        "id": 1,
        "name": "Feuerbach",
        "legacy_code": "Feuerbach",
        "cost": "39",
        "swc": "1.5",
        "spec": [],
        "bsw": [
          "Feuerbach"
        ],
        "ccw": [
          "Knife",
          "Pistol"
        ]
      },
      {
        "id": 2,
        "name": "AP HMG",
        "legacy_code": "Default",
        "cost": "41",
        "swc": "2",
        "spec": [],
        "bsw": [
          "AP HMG"
        ],
        "ccw": [
          "Knife",
          "Pistol"
        ]
      }
    ]
  },
  {
    "id": 4027,
    "army": "Haqqislam",
    "isc": "Bashi Bazouks",
    "legacy_isc": "Bashi Bazouk",
    "name": "Bashi Bazouk",
    "type": "LI",
    "classification": "Specially Trained",
    "imp": "",
    "irr": "X",
    "cube": "",
    "mov": "4-4",
    "cc": "15",
    "bs": "11",
    "ph": "10",
    "wip": "12",
    "arm": "2",
    "bts": "0",
    "w": "1",
    "s": "2",
    "ava": "2",
    "spec": [
      "AD: Parachutist / Zero-G",
      "Holoprojector L2"
    ],
    "childs": [
      {
        "id": 1,
        "name": "Rifle",
        "legacy_code": "Default",
        "cost": "16",
        "swc": "0",
        "spec": [],
        "bsw": [
          "Rifle",
          "Light Shotgun"
        ],
        "ccw": [
          "Knife",
          "Pistol"
        ]
      },
      {
        "id": 2,
        "name": "Boarding Shotgun",
        "legacy_code": "Boarding Shotgun",
        "cost": "15",
        "swc": "0",
        "spec": [],
        "bsw": [
          "Boarding Shotgun"
        ],
        "ccw": [
          "Knife",
          "Pistol"
        ]
      },
      {
        "id": 3,
        "name": "AP Rifle",
        "legacy_code": "AP Rifle",
        "cost": "17",
        "swc": "0",
        "spec": [],
        "bsw": [
          "AP Rifle"
        ],
        "ccw": [
          "CCW",
          "Breaker Pistol (2)"
        ]
      },
      {
        "id": 4,
        "name": "E/Mauler",
        "legacy_code": "E/Mauler",
        "cost": "17",
        "swc": "0",
        "spec": [],
        "bsw": [
          "Combi Rifle",
          "E/Mauler"
        ],
        "ccw": [
          "CCW",
          "Pistol"
        ]
      },
      {
        "id": 5,
        "name": "Submachine Gun",
        "cost": "12",
        "swc": "0",
        "spec": [],
        "bsw": [
          "Submachine Gun",
          "Chain-Colt"
        ],
        "ccw": [
          "CCW",
          "Pistol"
        ]
      }
    ]
  },
  {
    "id": 4028,
    "army": "Haqqislam",
    "isc": "Hafza Unit",
    "legacy_isc": "Hafza Unit",
    "name": "Hafza",
    "type": "LI",
    "classification": "Specially Trained",
    "imp": "",
    "irr": "",
    "cube": "X",
    "mov": "4-4",
    "cc": "14",
    "bs": "12",
    "ph": "10",
    "wip": "14",
    "arm": "2",
    "bts": "0",
    "w": "1",
    "s": "2",
    "ava": "2",
    "spec": [
      "Holoprojector L1"
    ],
    "childs": [
      {
        "id": 1,
        "name": "Rifle",
        "legacy_code": "Default",
        "cost": "16",
        "swc": "0",
        "spec": [],
        "bsw": [
          "Rifle",
          "Light Shotgun"
        ],
        "ccw": [
          "Knife",
          "Pistol"
        ]
      },
      {
        "id": 2,
        "name": "Lieutenant+Spitfire",
        "legacy_code": "Lieutenant+Spitfire",
        "cost": "22",
        "swc": "1",
        "spec": [
          "Lieutenant"
        ],
        "bsw": [
          "Spitfire"
        ],
        "ccw": [
          "Knife",
          "Pistol"
        ]
      },
      {
        "id": 3,
        "name": "Lieutenant",
        "legacy_code": "Lieutenant",
        "cost": "16",
        "swc": "0",
        "spec": [
          "Lieutenant"
        ],
        "bsw": [
          "Rifle",
          "Light Shotgun"
        ],
        "ccw": [
          "Knife",
          "Pistol"
        ]
      },
      {
        "id": 4,
        "name": "Observer",
        "legacy_code": "Observer",
        "cost": "17",
        "swc": "0",
        "spec": [
          "Forward Observer"
        ],
        "bsw": [
          "Rifle",
          "Light Shotgun"
        ],
        "ccw": [
          "Knife",
          "Pistol"
        ]
      },
      {
        "id": 5,
        "name": "Spitfire",
        "legacy_code": "Spitfire",
        "cost": "22",
        "swc": "1",
        "spec": [],
        "bsw": [
          "Spitfire"
        ],
        "ccw": [
          "Knife",
          "Pistol"
        ]
      },
      {
        "id": 6,
        "name": "Heavy Rocket Launcher",
        "cost": "18",
        "swc": "1.5",
        "spec": [],
        "bsw": [
          "Heavy Rocket Launcher"
        ],
        "ccw": [
          "Knife",
          "Assault Pistol"
        ]
      }
    ]
  },
  {
    "id": 4029,
    "army": "Haqqislam",
    "isc": "Hassassin Farzans",
    "legacy_isc": "Hassassin Farzans",
    "name": "Farzan",
    "type": "SK",
    "classification": "Specially Trained",
    "imp": "",
    "irr": "",
    "cube": "",
    "mov": "4-4",
    "cc": "15",
    "bs": "12",
    "ph": "11",
    "wip": "14",
    "arm": "0",
    "bts": "0",
    "w": "1",
    "s": "2",
    "ava": "1",
    "spec": [
      "CH: Camouflage",
      "Infiltration",
      "Religious Troop",
      "Multiterrain"
    ],
    "childs": [
      {
        "id": 1,
        "name": "Chain Of Command",
        "legacy_code": "Default",
        "cost": "26",
        "swc": "0",
        "spec": [
          "Chain of Command"
        ],
        "bsw": [
          "Boarding Shotgun"
        ],
        "ccw": [
          "Knife",
          "Pistol"
        ]
      },
      {
        "id": 2,
        "name": "Observer",
        "legacy_code": "Observer",
        "cost": "23",
        "swc": "0",
        "spec": [
          "Forward Observer"
        ],
        "bsw": [
          "Rifle",
          "Light Shotgun"
        ],
        "ccw": [
          "Knife",
          "Pistol"
        ]
      },
      {
        "id": 3,
        "name": "Minelayer",
        "cost": "23",
        "swc": "0",
        "spec": [
          "Minelayer"
        ],
        "bsw": [
          "Boarding Shotgun",
          "Antipersonnel Mines"
        ],
        "ccw": [
          "Knife",
          "Pistol"
        ]
      }
    ]
  },
  {
    "id": 4030,
    "army": "Haqqislam",
    "isc": "Hassassin Lasiqs",
    "legacy_isc": "Hassassin Lasiqs",
    "name": "Lasiq",
    "type": "MI",
    "classification": "Specially Trained",
    "imp": "",
    "irr": "",
    "cube": "",
    "mov": "4-2",
    "cc": "14",
    "bs": "12",
    "ph": "11",
    "wip": "14",
    "arm": "2",
    "bts": "0",
    "w": "1",
    "s": "2",
    "ava": "2",
    "spec": [
      "CH: Mimetism",
      "Climbing Plus",
      "Religious Troop",
      "X Visor"
    ],
    "childs": [
      {
        "id": 1,
        "name": "Viral Rifle",
        "legacy_code": "Default",
        "cost": "25",
        "swc": "0",
        "spec": [],
        "bsw": [
          "Viral Rifle",
          "Light Shotgun"
        ],
        "ccw": [
          "Knife",
          "Pistol"
        ]
      },
      {
        "id": 2,
        "name": "Viral Sniper Rifle",
        "legacy_code": "Viral Sniper Rifle",
        "cost": "25",
        "swc": "1.5",
        "spec": [],
        "bsw": [
          "Viral Sniper Rifle"
        ],
        "ccw": [
          "Knife",
          "Pistol"
        ]
      }
    ]
  },
  {
    "id": 4031,
    "army": "Haqqislam",
    "isc": "Hassassin Muyibs",
    "legacy_isc": "Hassassin Muyibs",
    "name": "Muyib",
    "type": "LI",
    "classification": "Specially Trained",
    "imp": "",
    "irr": "",
    "cube": "",
    "mov": "4-4",
    "cc": "17",
    "bs": "12",
    "ph": "11",
    "wip": "14",
    "arm": "2",
    "bts": "0",
    "w": "1",
    "s": "2",
    "ava": "2",
    "spec": [
      "Religious Troop",
      "V: Dogged",
      "Number 2"
    ],
    "childs": [
      {
        "id": 1,
        "name": "Panzerfaust",
        "legacy_code": "Default",
        "cost": "24",
        "swc": "0",
        "spec": [],
        "bsw": [
          "Rifle",
          "Light Shotgun",
          "Panzerfaust"
        ],
        "ccw": [
          "Knife",
          "Pistol",
          "D-Charges"
        ]
      },
      {
        "id": 2,
        "name": "Smoke",
        "legacy_code": "Smoke",
        "cost": "23",
        "swc": "1",
        "spec": [],
        "bsw": [
          "Rifle",
          "Light Grenade Launcher",
          "Smoke Light Grenade Launcher"
        ],
        "ccw": [
          "Knife",
          "Pistol"
        ]
      },
      {
        "id": 3,
        "name": "Smoke Lieutenant",
        "legacy_code": "Lieutenant",
        "cost": "23",
        "swc": "1.5",
        "spec": [
          "Lieutenant"
        ],
        "bsw": [
          "Rifle",
          "Light Grenade Launcher",
          "Smoke Light Grenade Launcher"
        ],
        "ccw": [
          "Knife",
          "Pistol"
        ]
      },
      {
        "id": 4,
        "name": "Doctor",
        "legacy_code": "Doctor",
        "cost": "27",
        "swc": "0",
        "spec": [
          "Doctor Plus",
          "MediKit"
        ],
        "bsw": [
          "Rifle",
          "Light Shotgun",
          "D.E.P."
        ],
        "ccw": [
          "Knife",
          "Pistol"
        ]
      },
      {
        "id": 5,
        "name": "Spitfire",
        "legacy_code": "Spitfire",
        "cost": "28",
        "swc": "1",
        "spec": [
          "X Visor"
        ],
        "bsw": [
          "Spitfire"
        ],
        "ccw": [
          "Knife",
          "Pistol",
          "D-Charges"
        ]
      },
      {
        "id": 6,
        "name": "Minelayer (Viral)",
        "legacy_code": "Minelayer (Viral)",
        "cost": "25",
        "swc": "0",
        "spec": [
          "Minelayer"
        ],
        "bsw": [
          "Rifle",
          "Light Shotgun",
          "D.E.P.",
          "Viral Mines"
        ],
        "ccw": [
          "Knife",
          "Pistol"
        ]
      },
      {
        "id": 7,
        "name": "Minelayer (E/Mauler + Mines)",
        "legacy_code": "Minelayer (E/Mauler)",
        "cost": "24",
        "swc": "0",
        "spec": [
          "Minelayer"
        ],
        "bsw": [
          "Rifle",
          "Light Shotgun",
          "D.E.P.",
          "E/Mauler",
          "Antipersonnel Mines"
        ],
        "ccw": [
          "Knife",
          "Pistol"
        ]
      },
      {
        "id": 8,
        "name": "Heavy Rocket Launcher",
        "legacy_code": "Heavy Rocket Launcher",
        "cost": "22",
        "swc": "1",
        "spec": [
          "X Visor"
        ],
        "bsw": [
          "Heavy Rocket Launcher"
        ],
        "ccw": [
          "Knife",
          "Pistol",
          "D-Charges"
        ]
      },
      {
        "id": 9,
        "name": "Observer",
        "cost": "24",
        "swc": "0",
        "spec": [
          "Forward Observer"
        ],
        "bsw": [
          "Rifle",
          "Light Shotgun",
          "D.E.P."
        ],
        "ccw": [
          "Knife",
          "Pistol"
        ]
      },
      {
        "id": 10,
        "name": "Haris",
        "cost": "25",
        "swc": "0.5",
        "spec": [
          "Fireteam: Haris"
        ],
        "bsw": [
          "Rifle",
          "Light Shotgun",
          "Panzerfaust"
        ],
        "ccw": [
          "Knife",
          "Pistol",
          "D-Charges"
        ]
      },
      {
        "id": 11,
        "name": "Lieutenant",
        "cost": "24",
        "swc": "0",
        "spec": [
          "Lieutenant"
        ],
        "bsw": [
          "Rifle",
          "Light Shotgun",
          "Panzerfaust"
        ],
        "ccw": [
          "Knife",
          "Pistol",
          "D-Charges"
        ]
      }
    ]
  },
  {
    "id": 4032,
    "army": "Haqqislam",
    "isc": "Hussein Al-Djabel",
    "legacy_isc": "Hussein Al-Djabel",
    "name": "Al-Djabel",
    "image": 4013,
    "type": "SK",
    "classification": "Character",
    "imp": "",
    "irr": "",
    "cube": "",
    "mov": "4-4",
    "cc": "23",
    "bs": "12",
    "ph": "13",
    "wip": "15",
    "arm": "1",
    "bts": "0",
    "w": "1",
    "s": "2",
    "ava": "1",
    "spec": [
      "Basic Impersonation",
      "Martial Arts L4",
      "Religious Troop",
      "Kinematika L1",
      "Multiterrain"
    ],
    "childs": [
      {
        "id": 1,
        "name": "Viral CCW",
        "legacy_code": "Default",
        "cost": "35",
        "swc": "0",
        "spec": [],
        "bsw": [
          "Rifle",
          "Light Shotgun",
          "Smoke Grenades"
        ],
        "ccw": [
          "Pistol",
          "Viral CCW",
          "Knife"
        ]
      }
    ]
  },
  {
    "id": 4033,
    "army": "Haqqislam",
    "isc": "Kameel Remotes",
    "legacy_isc": "Kameel Remotes",
    "name": "Kameel",
    "type": "REM",
    "classification": "Support",
    "imp": "",
    "irr": "",
    "cube": "",
    "hackable": "X",
    "mov": "4-4",
    "cc": "8",
    "bs": "11",
    "ph": "10",
    "wip": "13",
    "arm": "2",
    "bts": "3",
    "w": "1",
    "s": "4",
    "ava": "2",
    "spec": [
      "Baggage",
      "G: Remote Presence"
    ],
    "childs": [
      {
        "id": 1,
        "name": "Minesweeper",
        "legacy_code": "Default",
        "cost": "8",
        "swc": "0",
        "spec": [
          "Minesweeper",
          "Repeater"
        ],
        "bsw": [],
        "ccw": [
          "Electric Pulse"
        ]
      },
      {
        "id": 2,
        "name": "Rifle",
        "legacy_code": "Rifle",
        "cost": "21",
        "swc": "0",
        "spec": [
          "Total Reaction",
          "Repeater"
        ],
        "bsw": [
          "Rifle",
          "Light Shotgun"
        ],
        "ccw": [
          "Electric Pulse"
        ]
      },
      {
        "id": 3,
        "name": "EVO",
        "legacy_code": "EVO",
        "cost": "25",
        "swc": "0.5",
        "spec": [
          "EVO Hacking Device"
        ],
        "bsw": [],
        "ccw": [
          "Electric Pulse"
        ]
      }
    ]
  },
  {
    "id": 4034,
    "army": "Haqqislam",
    "isc": "Nasmat Remotes",
    "legacy_isc": "Nasmat Remotes",
    "name": "Nasmat",
    "type": "REM",
    "classification": "Support",
    "imp": "",
    "irr": "",
    "cube": "",
    "hackable": "X",
    "mov": "6-4",
    "cc": "8",
    "bs": "8",
    "ph": "10",
    "wip": "13",
    "arm": "0",
    "bts": "3",
    "w": "1",
    "s": "1",
    "ava": "2",
    "spec": [
      "CH: Mimetism",
      "G: Servant"
    ],
    "childs": [
      {
        "id": 1,
        "name": "Servant",
        "legacy_code": "Default",
        "cost": "3",
        "swc": "0",
        "spec": [],
        "bsw": [],
        "ccw": [
          "Electric Pulse"
        ]
      }
    ]
  },
  {
    "id": 4035,
    "army": "Haqqislam",
    "isc": "Odalisques",
    "legacy_isc": "Odalisques",
    "name": "Odalisque",
    "type": "LI",
    "classification": "Specially Trained",
    "imp": "",
    "irr": "",
    "cube": "X",
    "mov": "4-4",
    "cc": "15",
    "bs": "12",
    "ph": "10",
    "wip": "14",
    "arm": "2",
    "bts": "0",
    "w": "1",
    "s": "2",
    "ava": "2",
    "spec": [
      "Sixth Sense L2 / 360° Visor",
      "V: No Wound Incapacitation",
      "I-Kohl L3"
    ],
    "childs": [
      {
        "id": 1,
        "name": "Rifle",
        "legacy_code": "Default",
        "cost": "24",
        "swc": "0",
        "spec": [],
        "bsw": [
          "Nanopulser",
          "Rifle",
          "Light Shotgun"
        ],
        "ccw": [
          "Knife",
          "Pistol"
        ]
      },
      {
        "id": 2,
        "name": "Haris",
        "legacy_code": "Haris",
        "cost": "25",
        "swc": "0.5",
        "spec": [
          "Fireteam: Haris"
        ],
        "bsw": [
          "Nanopulser",
          "Rifle",
          "Light Shotgun"
        ],
        "ccw": [
          "Knife",
          "Pistol"
        ]
      },
      {
        "id": 3,
        "name": "SMG",
        "legacy_code": "SMG",
        "cost": "22",
        "swc": "0",
        "spec": [],
        "bsw": [
          "Nanopulser",
          "Submachine Gun",
          "Contender"
        ],
        "ccw": [
          "Knife",
          "Pistol"
        ]
      },
      {
        "id": 4,
        "name": "Boarding Shotgun",
        "legacy_code": "Boarding Shotgun",
        "cost": "23",
        "swc": "0",
        "spec": [],
        "bsw": [
          "Nanopulser",
          "Boarding Shotgun"
        ],
        "ccw": [
          "Knife",
          "Pistol"
        ]
      },
      {
        "id": 5,
        "name": "Spitfire",
        "legacy_code": "Spitfire",
        "cost": "30",
        "swc": "1",
        "spec": [],
        "bsw": [
          "Nanopulser",
          "Spitfire"
        ],
        "ccw": [
          "Knife",
          "Pistol"
        ]
      }
    ]
  },
  {
    "id": 4036,
    "army": "Haqqislam",
    "isc": "Saladin, O-12 Liaison Officer",
    "legacy_isc": "Saladin, O-12 Liaison Officer",
    "name": "Saladin",
    "type": "MI",
    "classification": "Character",
    "imp": "",
    "irr": "",
    "cube": "X",
    "mov": "4-2",
    "cc": "15",
    "bs": "13",
    "ph": "12",
    "wip": "16",
    "arm": "3",
    "bts": "3",
    "w": "1",
    "s": "2",
    "ava": "1",
    "spec": [
      "Repeater",
      "Strategos L3",
      "V: No Wound Incapacitation"
    ],
    "childs": [
      {
        "id": 1,
        "name": "Combi",
        "legacy_code": "Default",
        "cost": "36",
        "swc": "0",
        "spec": [],
        "bsw": [
          "Combi Rifle",
          "Nanopulser"
        ],
        "ccw": [
          "CCW",
          "Pistol"
        ]
      },
      {
        "id": 2,
        "name": "Lieutenant",
        "legacy_code": "Lieutenant",
        "cost": "36",
        "swc": "0",
        "spec": [
          "Lieutenant"
        ],
        "bsw": [
          "Combi Rifle",
          "Nanopulser"
        ],
        "ccw": [
          "CCW",
          "Pistol"
        ]
      }
    ]
  },
  {
    "id": 4037,
    "army": "Haqqislam",
    "isc": "Husam Spec-Ops",
    "legacy_isc": "Husam Spec-Ops",
    "name": "Husam",
    "type": "SPEC-OPS",
    "imp": "",
    "irr": "",
    "cube": "",
    "mov": "X-X",
    "cc": "X",
    "bs": "X",
    "ph": "X",
    "wip": "X",
    "arm": "X",
    "bts": "X",
    "w": "X",
    "ava": "1",
    "spec": [
      "Spec-Op"
    ],
    "childs": [
      {
        "id": 1,
        "name": "Spec-Ops",
        "legacy_code": "Default",
        "cost": "0",
        "swc": "0",
        "spec": [],
        "bsw": [],
        "ccw": []
      }
    ]
  },
  {
    "id": 4038,
    "army": "Haqqislam",
    "isc": "Hassassin Husam Yasbir",
    "legacy_isc": "Hassassin Husam Yasbir",
    "name": "Hassassin Husam Yasbir",
    "image": 4037,
    "type": "LI",
    "classification": "Character",
    "imp": "",
    "irr": "",
    "cube": "X",
    "mov": "4-4",
    "cc": "22",
    "bs": "12",
    "ph": "13",
    "wip": "14",
    "arm": "1",
    "bts": "3",
    "w": "1",
    "s": "2",
    "ava": "1",
    "spec": [
      "Martial Arts L3",
      "Religious Troop",
      "Specialist Operative"
    ],
    "childs": [
      {
        "id": 1,
        "name": "Holoprojector L1",
        "legacy_code": "Default",
        "cost": "27",
        "swc": "0",
        "spec": [
          "Holoprojector L1"
        ],
        "bsw": [
          "Rifle",
          "Light Shotgun",
          "Nanopulser"
        ],
        "ccw": [
          "Pistol",
          "Viral CCW",
          "Knife"
        ]
      },
      {
        "id": 2,
        "name": "Infiltration",
        "legacy_code": "Infiltration",
        "cost": "34",
        "swc": "0",
        "spec": [
          "Infiltration",
          "Holoprojector L2"
        ],
        "bsw": [
          "Rifle",
          "Light Shotgun",
          "Nanopulser",
          "Smoke Grenades"
        ],
        "ccw": [
          "Pistol",
          "Viral CCW",
          "Knife"
        ]
      }
    ]
  },
  {
    "id": 4039,
    "army": "Haqqislam",
    "isc": "Kaplan Tactical Services (KTS)",
    "legacy_isc": "KTS, Kaplan Tactical Services",
    "name": "Kaplan",
    "type": "LI",
    "classification": "Veteran",
    "imp": "",
    "irr": "",
    "cube": "",
    "mov": "4-4",
    "cc": "13",
    "bs": "12",
    "ph": "11",
    "wip": "14",
    "arm": "2",
    "bts": "6",
    "w": "1",
    "s": "2",
    "ava": "2",
    "spec": [
      "CH: Mimetism",
      "V: Courage"
    ],
    "childs": [
      {
        "id": 1,
        "name": "ADHL",
        "legacy_code": "ADHL",
        "cost": "23",
        "swc": "0",
        "spec": [],
        "bsw": [
          "Combi Rifle",
          "Adhesive Launcher"
        ],
        "ccw": [
          "Pistol",
          "Knife",
          "D-Charges"
        ]
      },
      {
        "id": 2,
        "name": "Blitzen",
        "legacy_code": "Default",
        "cost": "23",
        "swc": "0",
        "spec": [],
        "bsw": [
          "Combi Rifle",
          "Blitzen"
        ],
        "ccw": [
          "Pistol",
          "Knife"
        ]
      },
      {
        "id": 3,
        "name": "MULTI Sniper Rifle",
        "legacy_code": "MULTI Sniper Rifle",
        "cost": "30",
        "swc": "1.5",
        "spec": [],
        "bsw": [
          "MULTI Sniper Rifle"
        ],
        "ccw": [
          "Pistol",
          "Knife"
        ]
      },
      {
        "id": 4,
        "name": "Spitfire",
        "legacy_code": "Spitfire",
        "cost": "28",
        "swc": "1",
        "spec": [],
        "bsw": [
          "Spitfire"
        ],
        "ccw": [
          "Pistol",
          "Knife"
        ]
      },
      {
        "id": 5,
        "name": "Engineer ADHL",
        "legacy_code": "Engineer ADHL",
        "cost": "27",
        "swc": "0",
        "spec": [
          "Engineer"
        ],
        "bsw": [
          "Combi Rifle",
          "Adhesive Launcher"
        ],
        "ccw": [
          "Pistol",
          "Knife",
          "D-Charges"
        ]
      },
      {
        "id": 6,
        "name": "Engineer Blitzen",
        "legacy_code": "Engineer Blitzen",
        "cost": "27",
        "swc": "0",
        "spec": [
          "Engineer"
        ],
        "bsw": [
          "Combi Rifle",
          "Blitzen"
        ],
        "ccw": [
          "Pistol",
          "Knife"
        ]
      },
      {
        "id": 7,
        "name": "Doctor",
        "legacy_code": "Doctor",
        "cost": "27",
        "swc": "0",
        "spec": [
          "Doctor",
          "MediKit"
        ],
        "bsw": [
          "Combi Rifle",
          "Blitzen"
        ],
        "ccw": [
          "Pistol",
          "Knife"
        ]
      }
    ]
  },
  {
    "id": 4040,
    "army": "Haqqislam",
    "isc": "Hassassin Barid",
    "legacy_isc": "Hassassin Barid",
    "name": "Barid",
    "type": "LI",
    "classification": "Specially Trained",
    "imp": "",
    "irr": "",
    "cube": "",
    "mov": "4-4",
    "cc": "14",
    "bs": "12",
    "ph": "10",
    "wip": "14",
    "arm": "1",
    "bts": "3",
    "w": "1",
    "s": "2",
    "ava": "2",
    "spec": [
      "Religious Troop"
    ],
    "childs": [
      {
        "id": 1,
        "name": "Hacker",
        "legacy_code": "Default",
        "cost": "21",
        "swc": "0.5",
        "spec": [
          "Hacking Device"
        ],
        "bsw": [
          "Rifle",
          "Pitcher"
        ],
        "ccw": [
          "Pistol",
          "Knife"
        ]
      },
      {
        "id": 2,
        "name": "Assault Hacker",
        "legacy_code": "Hacker+Observer",
        "cost": "19",
        "swc": "0.5",
        "spec": [
          "Assault Hacking Device: UPGRADE: Icebreaker"
        ],
        "bsw": [
          "Rifle",
          "Pitcher"
        ],
        "ccw": [
          "Pistol",
          "Knife"
        ]
      },
      {
        "id": 3,
        "name": "Observer",
        "legacy_code": "Observer",
        "cost": "14",
        "swc": "0",
        "spec": [
          "Forward Observer"
        ],
        "bsw": [
          "Rifle",
          "Pitcher"
        ],
        "ccw": [
          "Pistol",
          "Knife"
        ]
      },
      {
        "id": 4,
        "name": "Hacker+Lieutenant",
        "legacy_code": "Hacker+Lieutenant",
        "cost": "21",
        "swc": "1",
        "spec": [
          "Hacking Device",
          "Lieutenant"
        ],
        "bsw": [
          "Rifle",
          "Pitcher"
        ],
        "ccw": [
          "Pistol",
          "Knife"
        ]
      },
      {
        "id": 5,
        "name": "Observer+Lieutenant",
        "legacy_code": "Observer+Lieutenant",
        "cost": "14",
        "swc": "0",
        "spec": [
          "Forward Observer",
          "Lieutenant"
        ],
        "bsw": [
          "Rifle",
          "Pitcher"
        ],
        "ccw": [
          "Pistol",
          "Knife"
        ]
      },
      {
        "id": 6,
        "name": "Killer Hacker",
        "cost": "16",
        "swc": "0",
        "spec": [
          "Killer Hacking Device: UPGRADE: Lightning"
        ],
        "bsw": [
          "Rifle",
          "Pitcher"
        ],
        "ccw": [
          "Pistol",
          "Knife"
        ]
      }
    ]
  },
  {
    "id": 4041,
    "army": "Haqqislam",
    "isc": "Sekban",
    "legacy_isc": "Sekban",
    "name": "Sekban",
    "type": "MI",
    "classification": "Elite",
    "imp": "",
    "irr": "",
    "cube": "X",
    "mov": "4-2",
    "cc": "14",
    "bs": "13",
    "ph": "11",
    "wip": "14",
    "arm": "3",
    "bts": "3",
    "w": "1",
    "s": "2",
    "ava": "2",
    "spec": [
      "360° Visor",
      "Zero-G",
      "Fireteam: Duo"
    ],
    "childs": [
      {
        "id": 1,
        "name": "Boarding Shotgun",
        "legacy_code": "Default",
        "cost": "20",
        "swc": "0",
        "spec": [],
        "bsw": [
          "Boarding Shotgun",
          "Chain-Colt"
        ],
        "ccw": [
          "Knife",
          "Pistol",
          "Stun Pistol"
        ]
      },
      {
        "id": 2,
        "name": "AP Rifle",
        "legacy_code": "AP Rifle",
        "cost": "21",
        "swc": "0",
        "spec": [],
        "bsw": [
          "AP Rifle",
          "Chain-Colt"
        ],
        "ccw": [
          "Knife",
          "Pistol",
          "Stun Pistol"
        ]
      },
      {
        "id": 3,
        "name": "Spitfire",
        "legacy_code": "Spitfire",
        "cost": "27",
        "swc": "1.5",
        "spec": [],
        "bsw": [
          "Spitfire"
        ],
        "ccw": [
          "Knife",
          "Pistol",
          "Stun Pistol"
        ]
      },
      {
        "id": 4,
        "name": "Heavy Rocket Launcher",
        "legacy_code": "Heavy Rocket Launcher",
        "cost": "23",
        "swc": "1.5",
        "spec": [],
        "bsw": [
          "Heavy Rocket Launcher",
          "Chain-Colt"
        ],
        "ccw": [
          "Knife",
          "Assault Pistol"
        ]
      },
      {
        "id": 5,
        "name": "Haris",
        "legacy_code": "Haris",
        "cost": "22",
        "swc": "0",
        "spec": [
          "Fireteam: Haris"
        ],
        "bsw": [
          "AP Rifle",
          "Chain-Colt"
        ],
        "ccw": [
          "Knife",
          "Pistol",
          "Stun Pistol"
        ]
      },
      {
        "id": 6,
        "name": "Doctor",
        "legacy_code": "Doctor",
        "cost": "24",
        "swc": "0",
        "spec": [
          "Doctor Plus",
          "MediKit"
        ],
        "bsw": [
          "Boarding Shotgun",
          "Chain-Colt"
        ],
        "ccw": [
          "Knife",
          "Pistol",
          "Stun Pistol"
        ]
      },
      {
        "id": 7,
        "name": "Lieutenant",
        "legacy_code": "Lieutenant",
        "cost": "21",
        "swc": "0",
        "spec": [
          "Lieutenant"
        ],
        "bsw": [
          "AP Rifle",
          "Chain-Colt"
        ],
        "ccw": [
          "Knife",
          "Pistol",
          "Stun Pistol"
        ]
      }
    ]
  },
  {
    "id": 4042,
    "army": "Haqqislam",
    "isc": "Hassassin Govads",
    "legacy_isc": "Hassassin Govads",
    "name": "Govad",
    "type": "LI",
    "classification": "Specially Trained",
    "imp": "",
    "irr": "",
    "cube": "X",
    "mov": "4-4",
    "cc": "14",
    "bs": "12",
    "ph": "11",
    "wip": "14",
    "arm": "2",
    "bts": "3",
    "w": "1",
    "s": "2",
    "ava": "3",
    "spec": [
      "Multispectral Visor L1",
      "Religious Troop",
      "Veteran L1"
    ],
    "childs": [
      {
        "id": 1,
        "name": "Rifle",
        "legacy_code": "Default",
        "cost": "21",
        "swc": "0",
        "spec": [],
        "bsw": [
          "Rifle",
          "Light Shotgun"
        ],
        "ccw": [
          "Knife",
          "Breaker Pistol"
        ]
      },
      {
        "id": 2,
        "name": "HMG",
        "legacy_code": "HMG",
        "cost": "29",
        "swc": "1.5",
        "spec": [],
        "bsw": [
          "HMG"
        ],
        "ccw": [
          "Knife",
          "Breaker Pistol"
        ]
      },
      {
        "id": 3,
        "name": "Boarding Shotgun",
        "legacy_code": "Boarding Shotgun",
        "cost": "20",
        "swc": "0",
        "spec": [],
        "bsw": [
          "Boarding Shotgun"
        ],
        "ccw": [
          "Knife",
          "Breaker Pistol"
        ]
      },
      {
        "id": 4,
        "name": "Sniper Rifle",
        "legacy_code": "Sniper Rifle",
        "cost": "25",
        "swc": "0.5",
        "spec": [],
        "bsw": [
          "Sniper Rifle"
        ],
        "ccw": [
          "Knife",
          "Breaker Pistol"
        ]
      },
      {
        "id": 5,
        "name": "Missile Launcher",
        "legacy_code": "Missile Launcher",
        "cost": "30",
        "swc": "1.5",
        "spec": [],
        "bsw": [
          "Missile Launcher",
          "Light Shotgun"
        ],
        "ccw": [
          "Knife",
          "Breaker Pistol"
        ]
      },
      {
        "id": 6,
        "name": "Hacker",
        "legacy_code": "Hacker",
        "cost": "28",
        "swc": "0.5",
        "spec": [
          "Hacking Device"
        ],
        "bsw": [
          "Boarding Shotgun"
        ],
        "ccw": [
          "Knife",
          "Breaker Pistol"
        ]
      },
      {
        "id": 7,
        "name": "Lieutenant",
        "legacy_code": "Lieutenant",
        "cost": "21",
        "swc": "0",
        "spec": [
          "Lieutenant"
        ],
        "bsw": [
          "Rifle",
          "Light Shotgun"
        ],
        "ccw": [
          "Knife",
          "Breaker Pistol"
        ]
      },
      {
        "id": 8,
        "name": "Haris",
        "cost": "22",
        "swc": "0.5",
        "spec": [
          "Fireteam: Haris"
        ],
        "bsw": [
          "Rifle",
          "Light Shotgun"
        ],
        "ccw": [
          "Knife",
          "Breaker Pistol"
        ]
      },
      {
        "id": 9,
        "name": "Number 2",
        "cost": "22",
        "swc": "0",
        "spec": [
          "Number 2"
        ],
        "bsw": [
          "Rifle",
          "Light Shotgun"
        ],
        "ccw": [
          "Knife",
          "Breaker Pistol"
        ]
      },
      {
        "id": 10,
        "name": "Killer Hacker",
        "cost": "23",
        "swc": "0.5",
        "spec": [
          "Killer Hacking Device"
        ],
        "bsw": [
          "Boarding Shotgun"
        ],
        "ccw": [
          "Knife",
          "Breaker Pistol"
        ]
      }
    ]
  },
  {
    "id": 4043,
    "army": "Haqqislam",
    "isc": "Zhayedan Intervention Troops",
    "legacy_isc": "Zhayedan Intervention Troops",
    "name": "Zhayedan",
    "type": "LI",
    "classification": "Specially Trained",
    "imp": "",
    "irr": "",
    "cube": "X",
    "mov": "4-4",
    "cc": "15",
    "bs": "12",
    "ph": "11",
    "wip": "14",
    "arm": "2",
    "bts": "3",
    "w": "1",
    "s": "2",
    "ava": "3",
    "spec": [
      "AutoMediKit",
      "Veteran L1"
    ],
    "childs": [
      {
        "id": 1,
        "name": "Breaker Rifle",
        "legacy_code": "Default",
        "cost": "31",
        "swc": "0",
        "spec": [
          "Marksmanship L2"
        ],
        "bsw": [
          "Breaker Rifle",
          "Light Shotgun"
        ],
        "ccw": [
          "Knife",
          "Pistol"
        ]
      },
      {
        "id": 2,
        "name": "HMG",
        "legacy_code": "HMG",
        "cost": "32",
        "swc": "1.5",
        "spec": [],
        "bsw": [
          "HMG"
        ],
        "ccw": [
          "Knife",
          "Pistol"
        ]
      },
      {
        "id": 3,
        "name": "Sniper Rifle",
        "legacy_code": "Sniper Rifle",
        "cost": "31",
        "swc": "0.5",
        "spec": [
          "Marksmanship L2"
        ],
        "bsw": [
          "Sniper Rifle"
        ],
        "ccw": [
          "Knife",
          "Pistol"
        ]
      },
      {
        "id": 4,
        "name": "Missile Launcher",
        "legacy_code": "Missile Launcher",
        "cost": "30",
        "swc": "1.5",
        "spec": [],
        "bsw": [
          "Missile Launcher",
          "Nimbus Grenades"
        ],
        "ccw": [
          "Knife",
          "Pistol"
        ]
      },
      {
        "id": 5,
        "name": "Doctor",
        "legacy_code": "Doctor",
        "cost": "27",
        "swc": "0",
        "spec": [
          "Doctor Plus",
          "MediKit"
        ],
        "bsw": [
          "Boarding Shotgun"
        ],
        "ccw": [
          "Knife",
          "Pistol"
        ]
      },
      {
        "id": 6,
        "name": "Lieutenant",
        "legacy_code": "Lieutenant",
        "cost": "31",
        "swc": "0",
        "spec": [
          "Marksmanship L2",
          "Lieutenant"
        ],
        "bsw": [
          "Breaker Rifle",
          "Light Shotgun"
        ],
        "ccw": [
          "Knife",
          "Pistol"
        ]
      },
      {
        "id": 7,
        "name": "HMG Lieutenant",
        "legacy_code": "HMG Lieutenant",
        "cost": "32",
        "swc": "1.5",
        "spec": [
          "Lieutenant"
        ],
        "bsw": [
          "HMG"
        ],
        "ccw": [
          "Knife",
          "Pistol"
        ]
      }
    ]
  },
  {
    "id": 4044,
    "army": "Haqqislam",
    "isc": "Zamira Nazarova",
    "legacy_isc": "Zamira Nazarova",
    "name": "Zamira",
    "image": 4014,
    "ava": "1",
    "spec": [
      "V: Dogged"
    ],
    "profiles": [
      {
        "id": 1,
        "type": "WB",
        "classification": "Character",
        "imp": "X",
        "irr": "X",
        "cube": "",
        "mov": "8-6",
        "cc": "21",
        "bs": "12",
        "ph": "13",
        "wip": "13",
        "arm": "1",
        "bts": "0",
        "w": "1",
        "s": "4",
        "spec": [
          "Motorcycle",
          "Kinematika L2"
        ],
        "bsw": [
          "Smoke Light Grenade Launcher"
        ],
        "ccw": []
      },
      {
        "id": 2,
        "name": "Dismounted",
        "mov": "4-4",
        "s": "2",
        "ava": "",
        "spec": [],
        "bsw": []
      }
    ],
    "childs": [
      {
        "id": 1,
        "name": "Light Shotgun",
        "legacy_code": "Default",
        "cost": "15",
        "swc": "0",
        "spec": [],
        "bsw": [
          "Smoke Grenades",
          "Light Shotgun"
        ],
        "ccw": [
          "Pistol",
          "E/M CCW"
        ]
      }
    ]
  },
  {
    "id": 4045,
    "army": "Haqqislam",
    "isc": "Zuleyka Nazarova",
    "legacy_isc": "Zuleyka Nazarova",
    "name": "Zuleyka",
    "image": 4014,
    "ava": "1",
    "spec": [
      "V: Dogged"
    ],
    "profiles": [
      {
        "id": 1,
        "type": "WB",
        "classification": "Character",
        "imp": "X",
        "irr": "X",
        "cube": "",
        "mov": "8-6",
        "cc": "22",
        "bs": "11",
        "ph": "13",
        "wip": "14",
        "arm": "1",
        "bts": "0",
        "w": "1",
        "s": "4",
        "spec": [
          "Motorcycle",
          "Kinematika L2"
        ],
        "bsw": [
          "Smoke Light Grenade Launcher"
        ],
        "ccw": []
      },
      {
        "id": 2,
        "name": "Dismounted",
        "mov": "4-4",
        "s": "2",
        "ava": "",
        "spec": [],
        "bsw": []
      }
    ],
    "childs": [
      {
        "id": 1,
        "name": "LFT",
        "legacy_code": "Default",
        "cost": "14",
        "swc": "0",
        "spec": [],
        "bsw": [
          "Smoke Grenades",
          "Light Flamethrower (2)"
        ],
        "ccw": [
          "Breaker Pistol (2)",
          "DA CCW"
        ]
      }
    ]
  },
  {
    "id": 4046,
    "army": "Haqqislam",
    "isc": "Druze Shock Teams",
    "legacy_isc": "Druze Shock Teams",
    "name": "Druze",
    "image": 9003,
    "type": "MI",
    "classification": "Veteran",
    "imp": "",
    "irr": "",
    "cube": "X",
    "mov": "4-2",
    "cc": "15",
    "bs": "12",
    "ph": "11",
    "wip": "13",
    "arm": "3",
    "bts": "3",
    "w": "1",
    "s": "2",
    "ava": "2",
    "spec": [
      "Fireteam: Duo",
      "Fatality L1",
      "Veteran L1"
    ],
    "childs": [
      {
        "id": 1,
        "name": "Combi",
        "legacy_code": "Default",
        "cost": "23",
        "swc": "0",
        "spec": [
          "X Visor"
        ],
        "bsw": [
          "Combi Rifle",
          "Chain-Colt"
        ],
        "ccw": [
          "Viral Pistol",
          "Knife"
        ]
      },
      {
        "id": 2,
        "name": "Assault Hacker",
        "legacy_code": "Hacker",
        "cost": "28",
        "swc": "0.5",
        "spec": [
          "Assault Hacking Device"
        ],
        "bsw": [
          "Combi Rifle",
          "Pitcher",
          "D-Charges"
        ],
        "ccw": [
          "Viral Pistol",
          "Knife"
        ]
      },
      {
        "id": 3,
        "name": "Light Grenade Launcher",
        "legacy_code": "LGL",
        "cost": "27",
        "swc": "0.5",
        "spec": [
          "X Visor"
        ],
        "bsw": [
          "Combi Rifle",
          "E/M Light Grenade Launcher",
          "Light Nimbus Grenade Launcher"
        ],
        "ccw": [
          "Viral Pistol",
          "Knife"
        ]
      },
      {
        "id": 4,
        "name": "HMG",
        "legacy_code": "Spitfire",
        "cost": "29",
        "swc": "1.5",
        "spec": [],
        "bsw": [
          "HMG",
          "Chain-Colt"
        ],
        "ccw": [
          "Viral Pistol",
          "Knife"
        ]
      },
      {
        "id": 5,
        "name": "Marksman Rifle",
        "cost": "27",
        "swc": "0",
        "spec": [
          "X Visor"
        ],
        "bsw": [
          "Shock Marksman Rifle",
          "Chain-Colt"
        ],
        "ccw": [
          "Viral Pistol",
          "Knife"
        ]
      },
      {
        "id": 6,
        "name": "Killer Hacker",
        "cost": "25",
        "swc": "0",
        "spec": [
          "Killer Hacking Device"
        ],
        "bsw": [
          "Combi Rifle",
          "Pitcher",
          "D-Charges"
        ],
        "ccw": [
          "Viral Pistol",
          "Knife"
        ]
      },
      {
        "id": 7,
        "name": "Panzerfaust",
        "cost": "25",
        "swc": "0",
        "spec": [
          "X Visor"
        ],
        "bsw": [
          "Combi Rifle",
          "Chain-Colt",
          "Panzerfaust"
        ],
        "ccw": [
          "Viral Pistol",
          "Knife"
        ]
      }
    ]
  },
  {
    "id": 4047,
    "army": "Haqqislam",
    "isc": "Hassassin Áyyār",
    "name": "Áyyār",
    "type": "HI",
    "classification": "Elite",
    "imp": "",
    "irr": "",
    "cube": "",
    "hackable": "X",
    "mov": "4-4",
    "cc": "17",
    "bs": "13",
    "ph": "13",
    "wip": "14",
    "arm": "3",
    "bts": "3",
    "w": "2",
    "s": "2",
    "ava": "1",
    "spec": [
      "Holoprojector L2",
      "Free Agent",
      "Religious Troop",
      "Specialist Operative"
    ],
    "childs": [
      {
        "id": 1,
        "name": "Rifle",
        "cost": "37",
        "swc": "0",
        "spec": [
          "Surprise Shot L2"
        ],
        "bsw": [
          "Rifle",
          "E/Mitter",
          "D.E.P."
        ],
        "ccw": [
          "Viral Pistol (2)",
          "CCW",
          "Knife"
        ]
      },
      {
        "id": 2,
        "name": "Shock Marksman Rifle",
        "cost": "39",
        "swc": "0",
        "spec": [
          "Surprise Shot L2"
        ],
        "bsw": [
          "Shock Marksman Rifle"
        ],
        "ccw": [
          "Viral Pistol (2)",
          "CCW",
          "Knife"
        ]
      },
      {
        "id": 3,
        "name": "Sniper Rifle",
        "cost": "39",
        "swc": "0.5",
        "spec": [],
        "bsw": [
          "Sniper Rifle"
        ],
        "ccw": [
          "Viral Pistol (2)",
          "CCW",
          "Knife"
        ]
      }
    ]
  },
  {
    "id": 4048,
    "army": "Haqqislam",
    "isc": "Husam Operative Leila Sharif",
    "name": "Leila Sharif",
    "image": 4037,
    "type": "LI",
    "classification": "Character",
    "imp": "",
    "irr": "",
    "cube": "X",
    "hackable": "",
    "mov": "4-4",
    "cc": "13",
    "bs": "12",
    "ph": "10",
    "wip": "14",
    "arm": "1",
    "bts": "3",
    "w": "1",
    "s": "2",
    "ava": "1",
    "spec": [],
    "childs": [
      {
        "id": 1,
        "name": "Killer Hacker",
        "cost": "20",
        "swc": "0",
        "spec": [
          "Killer Hacking Device"
        ],
        "bsw": [
          "Shock Marksman Rifle"
        ],
        "ccw": [
          "D-Charges",
          "Breaker Pistol",
          "Knife"
        ]
      }
    ]
  }
]
