[
  {
    "id": 4998,
    "army": "Haqqislam",
    "army_id": 4999,
    "name": "Qapu Khalqi",
    "legacy_name": "Qapu Khalqi",
    "units": [
      {
        "comment": "Ghulam",
        "id": 4002,
        "ava": "T",
        "linkable": true
      },
      {
        "comment": "Odalisques",
        "id": 4035,
        "ava": "5",
        "linkable": true
      },
      {
        "comment": "Bashi Bazouk",
        "id": 4027,
        "ava": "4"
      },
      {
        "comment": "Hafza Unit",
        "id": 4028,
        "ava": "4",
        "linkable": true,
        "note": "Up to 2 Hafza can join any non-Mercenary Fireteam: Core<br>Up to 1 Hafza can join any non-Mercenary Fireteam: Haris"
      },
      {
        "comment": "Sekban",
        "id": 4041,
        "ava": "5",
        "linkable": true
      },
      {
        "comment": "Djanbazan",
        "id": 4006,
        "ava": "5",
        "linkable": true
      },
      {
        "comment": "Azra'il",
        "id": 4026,
        "ava": "3"
      },
      {
        "comment": "Janissaries",
        "id": 4008,
        "ava": "5",
        "linkable": true
      },
      {
        "comment": "Al Hawwa' Unit",
        "id": 4024,
        "ava": "3"
      },
      {
        "comment": "Druze Shock Teams",
        "id": 4046,
        "ava": "5",
        "linkable": true
      },
      {
        "comment": "KTS, Kaplan Tactical Services",
        "id": 4039,
        "ava": "5",
        "linkable": true
      },
      {
        "comment": "Rafiq Remote",
        "id": 4017,
        "ava": "1"
      },
      {
        "comment": "Shihab Remote",
        "id": 4018,
        "ava": "2"
      },
      {
        "comment": "Shaytaniyah Remote",
        "id": 4019,
        "ava": "1"
      },
      {
        "comment": "Fanous Remote",
        "id": 4020,
        "ava": "3"
      },
      {
        "comment": "Nasmat Remotes",
        "id": 4034,
        "ava": "2"
      },
      {
        "comment": "Kameel Remotes",
        "id": 4033,
        "ava": "2"
      },
      {
        "comment": "Najjarun Engineer",
        "id": 4016,
        "ava": "1"
      },
      {
        "comment": "Husam Spec-Ops",
        "id": 4037,
        "ava": "1"
      },
      {
        "comment": "Husam Operative Leila Sharif",
        "id": 4048,
        "ava": "1",
        "linkable": true,
        "note": "Counts as Ghulam or Muyib for Fireteam composition"
      },
      {
        "comment": "Alguaciles",
        "id": 5001,
        "ava": "4"
      },
      {
        "comment": "Mobile Brigada",
        "id": 5008,
        "ava": "1"
      },
      {
        "comment": "Iguana Squadron",
        "id": 5026,
        "ava": "1"
      },
      {
        "comment": "Warcor",
        "id": 9017,
        "ava": "1"
      },
      {
        "comment": "Yuan Yuan",
        "id": 9001,
        "ava": "3"
      },
      {
        "comment": "Scarface",
        "id": 9015,
        "ava": "1"
      }
    ]
  }
]
